Proyecto_2/Avance_2/Arbitro/FIFO.vcd
$date
	Thu Jul  8 02:08:46 2021
$end
$version
	Icarus Verilog
$end
$timescale
	100ps
$end
$scope module BUF $end
$var wire 1 ! A $end
$var wire 1 " Y $end
$upscope $end
$scope module BancoPruebas $end
$var wire 1 # write_enable_3 $end
$var wire 1 $ write_enable_2 $end
$var wire 1 % write_enable_1 $end
$var wire 1 & write_enable_0 $end
$var wire 1 ' rst $end
$var wire 1 ( read_enable_3 $end
$var wire 1 ) read_enable_2 $end
$var wire 1 * read_enable_1 $end
$var wire 1 + read_enable_0 $end
$var wire 1 , mem_empty_3 $end
$var wire 1 - mem_empty_2 $end
$var wire 1 . mem_empty_1 $end
$var wire 1 / mem_empty_0 $end
$var wire 1 0 mem_alm_full_3 $end
$var wire 1 1 mem_alm_full_2 $end
$var wire 1 2 mem_alm_full_1 $end
$var wire 1 3 mem_alm_full_0 $end
$var wire 10 4 data_write_3 [9:0] $end
$var wire 10 5 data_write_2 [9:0] $end
$var wire 10 6 data_write_1 [9:0] $end
$var wire 10 7 data_write_0 [9:0] $end
$var wire 10 8 data_read_3 [9:0] $end
$var wire 10 9 data_read_2 [9:0] $end
$var wire 10 : data_read_1 [9:0] $end
$var wire 10 ; data_read_0 [9:0] $end
$var wire 1 < clk $end
$scope module arbitro_cond $end
$var wire 1 ' rst $end
$var wire 1 , empty_3 $end
$var wire 1 - empty_2 $end
$var wire 1 . empty_1 $end
$var wire 1 / empty_0 $end
$var wire 10 = data_poped_3 [9:0] $end
$var wire 10 > data_poped_2 [9:0] $end
$var wire 10 ? data_poped_1 [9:0] $end
$var wire 10 @ data_poped_0 [9:0] $end
$var wire 1 < clk $end
$var wire 1 0 alm_full_3 $end
$var wire 1 1 alm_full_2 $end
$var wire 1 2 alm_full_1 $end
$var wire 1 3 alm_full_0 $end
$var reg 10 A data_pushed_0 [9:0] $end
$var reg 10 B data_pushed_1 [9:0] $end
$var reg 10 C data_pushed_2 [9:0] $end
$var reg 10 D data_pushed_3 [9:0] $end
$var reg 1 & pop_0 $end
$var reg 1 E pop_0_d $end
$var reg 1 % pop_1 $end
$var reg 1 F pop_1_d $end
$var reg 1 $ pop_2 $end
$var reg 1 G pop_2_d $end
$var reg 1 # pop_3 $end
$var reg 1 H pop_3_d $end
$var reg 1 + push_0 $end
$var reg 1 * push_1 $end
$var reg 1 ) push_2 $end
$var reg 1 ( push_3 $end
$upscope $end
$scope module probador $end
$var wire 10 I data_pushed_0 [9:0] $end
$var wire 10 J data_pushed_1 [9:0] $end
$var wire 10 K data_pushed_2 [9:0] $end
$var wire 10 L data_pushed_3 [9:0] $end
$var wire 1 & pop_0 $end
$var wire 1 % pop_1 $end
$var wire 1 $ pop_2 $end
$var wire 1 # pop_3 $end
$var wire 1 + push_0 $end
$var wire 1 * push_1 $end
$var wire 1 ) push_2 $end
$var wire 1 ( push_3 $end
$var reg 1 3 alm_full_0 $end
$var reg 1 2 alm_full_1 $end
$var reg 1 1 alm_full_2 $end
$var reg 1 0 alm_full_3 $end
$var reg 1 < clk $end
$var reg 10 M data_poped_0 [9:0] $end
$var reg 10 N data_poped_1 [9:0] $end
$var reg 10 O data_poped_2 [9:0] $end
$var reg 10 P data_poped_3 [9:0] $end
$var reg 1 / empty_0 $end
$var reg 1 . empty_1 $end
$var reg 1 - empty_2 $end
$var reg 1 , empty_3 $end
$var reg 1 ' rst $end
$upscope $end
$upscope $end
$scope module DFF $end
$var wire 1 Q C $end
$var wire 1 R D $end
$var reg 1 S Q $end
$upscope $end
$scope module DFFSR $end
$var wire 1 T C $end
$var wire 1 U D $end
$var wire 1 V R $end
$var wire 1 W S $end
$var reg 1 X Q $end
$upscope $end
$scope module NAND $end
$var wire 1 Y A $end
$var wire 1 Z B $end
$var wire 1 [ Y $end
$upscope $end
$scope module NOR $end
$var wire 1 \ A $end
$var wire 1 ] B $end
$var wire 1 ^ Y $end
$upscope $end
$scope module NOT $end
$var wire 1 _ A $end
$var wire 1 ` Y $end
$upscope $end
$enddefinitions $end
#0
$dumpvars
z`
z_
x^
z]
z\
x[
zZ
zY
xX
zW
zV
zU
zT
xS
zR
zQ
b0 P
b0 O
b0 N
b0 M
bx L
bx K
bx J
bx I
xH
xG
xF
xE
bx D
bx C
bx B
bx A
b0 @
b0 ?
b0 >
b0 =
0<
bx ;
bx :
bx 9
bx 8
b0 7
b0 6
b0 5
b0 4
03
02
01
00
1/
1.
1-
1,
x+
x*
x)
x(
1'
x&
x%
x$
x#
z"
z!
$end
#20000000000
0E
0(
0)
0*
0+
0#
0$
0%
0&
1<
#40000000000
0<
#60000000000
0H
0G
0F
1<
#80000000000
0<
#100000000000
1<
#120000000000
0<
#140000000000
1<
#160000000000
0<
#180000000000
b1111001100 4
b1111001100 =
b1111001100 P
b1011001100 5
b1011001100 >
b1011001100 O
b111001100 6
b111001100 ?
b111001100 N
b11001100 7
b11001100 @
b11001100 M
0'
0,
0-
0.
0/
1<
#200000000000
0<
#220000000000
1&
1<
#240000000000
0<
#260000000000
1E
1<
#280000000000
0<
#300000000000
b1110101010 4
b1110101010 =
b1110101010 P
b1010101010 5
b1010101010 >
b1010101010 O
b110101010 6
b110101010 ?
b110101010 N
b110101010 7
b110101010 @
b110101010 M
b11001100 ;
b11001100 A
b11001100 I
1+
1<
#320000000000
0<
#340000000000
b110101010 :
b110101010 B
b110101010 J
1*
0+
1<
#360000000000
0<
#380000000000
1<
#400000000000
0<
#420000000000
b1111001100 4
b1111001100 =
b1111001100 P
b1011001100 5
b1011001100 >
b1011001100 O
b111001100 6
b111001100 ?
b111001100 N
b1011001100 7
b1011001100 @
b1011001100 M
1<
#440000000000
0<
#460000000000
b1011001100 9
b1011001100 C
b1011001100 K
1)
0*
1<
#480000000000
0<
#500000000000
1<
#520000000000
0<
#540000000000
b1110101010 4
b1110101010 =
b1110101010 P
b1010101010 5
b1010101010 >
b1010101010 O
b110101010 6
b110101010 ?
b110101010 N
b1110101010 7
b1110101010 @
b1110101010 M
1<
#560000000000
0<
#580000000000
b1110101010 8
b1110101010 D
b1110101010 L
1(
0)
1<
#600000000000
0<
#620000000000
1<
#640000000000
0<
#660000000000
b1111001100 4
b1111001100 =
b1111001100 P
b1011001100 5
b1011001100 >
b1011001100 O
b111001100 6
b111001100 ?
b111001100 N
b11001100 7
b11001100 @
b11001100 M
1<
#680000000000
0<
#700000000000
0(
1+
1<
#720000000000
0<
#740000000000
1<
#760000000000
0<
#780000000000
b1110101010 4
b1110101010 =
b1110101010 P
b1010101010 5
b1010101010 >
b1010101010 O
b110101010 6
b110101010 ?
b110101010 N
b10101010 7
b10101010 @
b10101010 M
13
1<
#800000000000
0<
#820000000000
b10101010 ;
b10101010 A
b10101010 I
0&
1<
#840000000000
0<
#860000000000
03
0E
1<
#880000000000
0<
#900000000000
0+
1&
b1111001100 4
b1111001100 =
b1111001100 P
b1011001100 5
b1011001100 >
b1011001100 O
b111001100 6
b111001100 ?
b111001100 N
b11001100 7
b11001100 @
b11001100 M
1<
#920000000000
0<
#940000000000
1E
1<
#960000000000
0<
#980000000000
b11001100 ;
b11001100 A
b11001100 I
1+
1<
#1000000000000
0<
#1020000000000
1<
#1040000000000
0<
#1060000000000
1<
#1080000000000
0<
#1100000000000
b11001100 6
b11001100 ?
b11001100 N
1/
1<
#1120000000000
0<
#1140000000000
1%
0&
1<
#1160000000000
0<
#1180000000000
1F
0E
1<
#1200000000000
0<
#1220000000000
0%
1&
b1110101010 4
b1110101010 =
b1110101010 P
b1010101010 5
b1010101010 >
b1010101010 O
b110101010 6
b110101010 ?
b110101010 N
b110101010 7
b110101010 @
b110101010 M
0/
1<
#1240000000000
0<
#1260000000000
1*
0+
0F
1E
1<
#1280000000000
0<
#1300000000000
1<
#1320000000000
0<
#1340000000000
b1111001100 4
b1111001100 =
b1111001100 P
b1011001100 5
b1011001100 >
b1011001100 O
b1011001100 6
b1011001100 ?
b1011001100 N
b1011001100 7
b1011001100 @
b1011001100 M
1<
#1360000000000
0<
#1380000000000
1)
0*
1<
#1400000000000
0<
#1420000000000
1<
#1440000000000
0<
#1460000000000
b1110101010 4
b1110101010 =
b1110101010 P
b1010101010 5
b1010101010 >
b1010101010 O
b1110101010 6
b1110101010 ?
b1110101010 N
b1110101010 7
b1110101010 @
b1110101010 M
1<
#1480000000000
0<
#1500000000000
1(
0)
1<
#1520000000000
0<
#1540000000000
1<
#1560000000000
0<
#1580000000000
b1111001100 4
b1111001100 =
b1111001100 P
b1011001100 5
b1011001100 >
b1011001100 O
b111001100 6
b111001100 ?
b111001100 N
b11001100 7
b11001100 @
b11001100 M
1<
#1600000000000
0<
#1620000000000
0(
1+
1<
#1640000000000
0<
#1660000000000
1<
#1680000000000
0<
#1700000000000
b1110101010 4
b1110101010 =
b1110101010 P
b1010101010 5
b1010101010 >
b1010101010 O
b110101010 6
b110101010 ?
b110101010 N
b10101010 7
b10101010 @
b10101010 M
12
1<
#1720000000000
0<
#1740000000000
b10101010 ;
b10101010 A
b10101010 I
0&
1<
#1760000000000
0<
#1780000000000
0E
02
1<
#1800000000000
0<
#1820000000000
b1111001100 4
b1111001100 =
b1111001100 P
b1011001100 5
b1011001100 >
b1011001100 O
b111001100 6
b111001100 ?
b111001100 N
b11001100 7
b11001100 @
b11001100 M
0+
1&
1<
#1840000000000
0<
#1860000000000
1E
1<
#1880000000000
0<
#1900000000000
b11001100 ;
b11001100 A
b11001100 I
1+
1<
