Avance_1/Recirculacion/salida_recirc.vcd
$date
	Tue May 25 18:00:10 2021
$end
$version
	GTKWave Analyzer v3.3.100 (w)1999-2019 BSI
$end
$timescale
	100ps
$end
$scope module BancoPruebas $end
$var wire 1 ; valid3 $end
$var wire 1 : valid2 $end
$var wire 1 9 valid1 $end
$var wire 1 8 valid0 $end
$var wire 1 7 probador_valid3 $end
$var wire 1 6 probador_valid2 $end
$var wire 1 5 probador_valid1 $end
$var wire 1 4 probador_valid0 $end
$var wire 8 3 probador_in3[7:0] $end
$var wire 8 2 probador_in2[7:0] $end
$var wire 8 1 probador_in1[7:0] $end
$var wire 8 0 probador_in0[7:0] $end
$var wire 8 / data_in3[7:0] $end
$var wire 8 . data_in2[7:0] $end
$var wire 8 - data_in1[7:0] $end
$var wire 8 , data_in0[7:0] $end
$var wire 1 + clk $end
$var wire 1 * L1_valid3 $end
$var wire 1 ) L1_valid2 $end
$var wire 1 ( L1_valid1 $end
$var wire 1 ' L1_valid0 $end
$var wire 8 & L1_in3[7:0] $end
$var wire 8 % L1_in2[7:0] $end
$var wire 8 $ L1_in1[7:0] $end
$var wire 8 # L1_in0[7:0] $end
$var wire 1 " IDL $end
$upscope $end
$enddefinitions $end
$dumpvars
#0
b0 -
b0 &
b0 3
08
0;
0:
0+
04
b0 ,
b0 1
07
0*
0)
0'
b0 2
0(
b0 .
b0 #
06
b0 %
09
b0 $
b0 0
05
b0 /
0"
#20
1"
1+
b100010 -
b1000100 &
1:
18
1;
1'
b10001 ,
1)
1*
b1000100 /
19
b10001 #
1(
b110011 .
b110011 %
b100010 $
#40
0+
#60
1+
b0 $
0)
0"
b10001000 3
b1110111 2
0:
b0 &
b1100110 -
b1010101 ,
08
b1100110 1
0'
0;
b0 %
0(
09
0*
b10001000 /
b0 #
b1110111 .
b1010101 0
#80
0+
#100
1+
b0 0
1'
b10101010 $
b0 2
1"
b0 3
b0 1
b10101010 -
b11001100 &
18
b10011001 ,
b10111011 .
1*
1(
1;
b10111011 %
19
b10011001 #
b11001100 /
#120
0+
#140
1+
b100010 /
08
b10001 2
b0 $
b11101110 0
0'
b0 &
b100010 3
0"
b11111111 -
b11111111 1
b0 #
0;
0*
b11101110 ,
b10001 .
0(
09
b0 %
#160
0+
#180
1+
b1000100 %
b110011 -
b110011 $
1)
1:
b0 2
b1010101 /
18
1"
1'
b0 0
b0 3
b1010101 &
19
b100010 ,
1;
b0 1
b100010 #
1*
1(
b1000100 .
#200
0+
#220
1+
b10001000 .
b10011001 3
b10001000 2
b1110111 -
b0 %
0:
b0 $
0)
b1100110 0
08
b10011001 /
0'
0"
0(
b1110111 1
b1100110 ,
b0 &
09
0;
0*
b0 #
#240
0+
#260
1+
b10101010 #
1'
1:
b0 3
b11001100 .
b11001100 %
b0 2
b10111011 -
b11011101 /
1)
b10111011 $
18
b0 0
1*
b11011101 &
b0 1
1"
1(
b10101010 ,
1;
19
#280
0+
#300
1+
09
08
b0 %
0'
b0 #
b0 .
0:
b0 $
b0 -
0)
b0 /
0;
0"
b0 &
0*
b0 ,
0(
