Proyecto_2/Avance_2/contador/contador.vcd
$date
	Tue Jul  6 16:59:55 2021
$end
$version
	Icarus Verilog
$end
$timescale
	100ps
$end
$scope module BUF $end
$var wire 1 ! A $end
$var wire 1 " Y $end
$upscope $end
$scope module BancoPruebas $end
$var wire 1 # rst $end
$var wire 10 $ data_in [9:0] $end
$var wire 3 % count_estructural [2:0] $end
$var wire 3 & count [2:0] $end
$var wire 1 ' clk $end
$scope module c0 $end
$var wire 1 # reset $end
$var wire 10 ( data_in [9:0] $end
$var wire 1 ' clk $end
$var reg 3 ) count [2:0] $end
$upscope $end
$scope module c0_estructural $end
$var wire 1 # reset $end
$var wire 10 * data_in [9:0] $end
$var wire 3 + count [2:0] $end
$var wire 1 ' clk $end
$var wire 1 , _28_ $end
$var wire 1 - _27_ $end
$var wire 1 . _26_ $end
$var wire 1 / _25_ $end
$var wire 1 0 _24_ $end
$var wire 1 1 _23_ $end
$var wire 1 2 _22_ $end
$var wire 1 3 _21_ $end
$var wire 1 4 _20_ $end
$var wire 1 5 _19_ $end
$var wire 1 6 _18_ $end
$var wire 1 7 _17_ $end
$var wire 1 8 _16_ $end
$var wire 1 9 _15_ $end
$var wire 1 : _14_ $end
$var wire 1 ; _13_ $end
$var wire 1 < _12_ $end
$var wire 1 = _11_ $end
$var wire 1 > _10_ $end
$var wire 1 ? _09_ $end
$var wire 1 @ _08_ $end
$var wire 1 A _07_ $end
$var wire 1 B _06_ $end
$var wire 1 C _05_ $end
$var wire 1 D _04_ $end
$var wire 1 E _03_ $end
$var wire 1 F _02_ $end
$var wire 1 G _01_ $end
$var wire 1 H _00_ $end
$scope module _29_ $end
$var wire 1 I A $end
$var wire 1 E Y $end
$upscope $end
$scope module _30_ $end
$var wire 1 D Y $end
$var wire 1 # A $end
$upscope $end
$scope module _31_ $end
$var wire 1 J A $end
$var wire 1 C Y $end
$upscope $end
$scope module _32_ $end
$var wire 1 K A $end
$var wire 1 L B $end
$var wire 1 B Y $end
$upscope $end
$scope module _33_ $end
$var wire 1 M A $end
$var wire 1 N B $end
$var wire 1 A Y $end
$upscope $end
$scope module _34_ $end
$var wire 1 B A $end
$var wire 1 A B $end
$var wire 1 @ Y $end
$upscope $end
$scope module _35_ $end
$var wire 1 O A $end
$var wire 1 P B $end
$var wire 1 ? Y $end
$upscope $end
$scope module _36_ $end
$var wire 1 Q A $end
$var wire 1 R B $end
$var wire 1 > Y $end
$upscope $end
$scope module _37_ $end
$var wire 1 S A $end
$var wire 1 T B $end
$var wire 1 = Y $end
$upscope $end
$scope module _38_ $end
$var wire 1 ? A $end
$var wire 1 = B $end
$var wire 1 < Y $end
$upscope $end
$scope module _39_ $end
$var wire 1 @ A $end
$var wire 1 < B $end
$var wire 1 ; Y $end
$upscope $end
$scope module _40_ $end
$var wire 1 > A $end
$var wire 1 ; B $end
$var wire 1 : Y $end
$upscope $end
$scope module _41_ $end
$var wire 1 : A $end
$var wire 1 9 Y $end
$upscope $end
$scope module _42_ $end
$var wire 1 E A $end
$var wire 1 9 B $end
$var wire 1 8 Y $end
$upscope $end
$scope module _43_ $end
$var wire 1 U A $end
$var wire 1 : B $end
$var wire 1 7 Y $end
$upscope $end
$scope module _44_ $end
$var wire 1 E A $end
$var wire 1 7 B $end
$var wire 1 6 Y $end
$upscope $end
$scope module _45_ $end
$var wire 1 V A $end
$var wire 1 8 B $end
$var wire 1 5 Y $end
$upscope $end
$scope module _46_ $end
$var wire 1 D A $end
$var wire 1 : B $end
$var wire 1 4 Y $end
$upscope $end
$scope module _47_ $end
$var wire 1 9 B $end
$var wire 1 3 Y $end
$var wire 1 # A $end
$upscope $end
$scope module _48_ $end
$var wire 1 6 A $end
$var wire 1 4 B $end
$var wire 1 2 Y $end
$upscope $end
$scope module _49_ $end
$var wire 1 5 A $end
$var wire 1 3 B $end
$var wire 1 1 Y $end
$upscope $end
$scope module _50_ $end
$var wire 1 W A $end
$var wire 1 8 B $end
$var wire 1 0 Y $end
$upscope $end
$scope module _51_ $end
$var wire 1 1 A $end
$var wire 1 0 B $end
$var wire 1 G Y $end
$upscope $end
$scope module _52_ $end
$var wire 1 E A $end
$var wire 1 / Y $end
$var wire 1 # B $end
$upscope $end
$scope module _53_ $end
$var wire 1 : A $end
$var wire 1 / B $end
$var wire 1 . Y $end
$upscope $end
$scope module _54_ $end
$var wire 1 8 A $end
$var wire 1 . B $end
$var wire 1 H Y $end
$upscope $end
$scope module _55_ $end
$var wire 1 X A $end
$var wire 1 2 B $end
$var wire 1 - Y $end
$upscope $end
$scope module _56_ $end
$var wire 1 C A $end
$var wire 1 6 B $end
$var wire 1 , Y $end
$upscope $end
$scope module _57_ $end
$var wire 1 - A $end
$var wire 1 , B $end
$var wire 1 F Y $end
$upscope $end
$scope module _58_ $end
$var wire 1 H D $end
$var wire 1 ' C $end
$var reg 1 Y Q $end
$upscope $end
$scope module _59_ $end
$var wire 1 G D $end
$var wire 1 ' C $end
$var reg 1 Z Q $end
$upscope $end
$scope module _60_ $end
$var wire 1 F D $end
$var wire 1 ' C $end
$var reg 1 [ Q $end
$upscope $end
$upscope $end
$scope module u0 $end
$var reg 1 ' clk $end
$var reg 10 \ data_in [9:0] $end
$var reg 1 # rst $end
$upscope $end
$upscope $end
$scope module DFFSR $end
$var wire 1 ] C $end
$var wire 1 ^ D $end
$var wire 1 _ R $end
$var wire 1 ` S $end
$var reg 1 a Q $end
$upscope $end
$enddefinitions $end
#0
$dumpvars
xa
z`
z_
z^
z]
b0 \
x[
xZ
xY
xX
xW
xV
xU
0T
0S
0R
0Q
0P
0O
0N
0M
0L
0K
xJ
xI
0H
0G
0F
xE
0D
xC
1B
1A
0@
1?
1>
1=
0<
1;
0:
19
08
17
06
15
14
03
02
11
x0
0/
1.
1-
1,
bx +
b0 *
bx )
b0 (
0'
bx &
bx %
b0 $
1#
z"
z!
$end
#20
0H
12
1.
01
04
10
0/
13
1E
1C
1D
0I
0W
0V
0U
0X
0J
0#
b0 &
b0 )
0Y
0Z
b0 %
b0 +
0[
1'
#40
0'
#60
1H
0.
0;
09
1:
1<
0>
0?
1R
1Q
1O
b11001 $
b11001 (
b11001 *
b11001 \
1'
#80
0'
#100
1G
00
0H
18
1/
0=
0E
1T
1S
0R
1I
b101101 $
b101101 (
b101101 *
b101101 \
b1 &
b1 )
b1 %
b1 +
1Y
1'
#120
0'
#140
1G
1H
01
1@
08
0/
15
07
1=
1>
0B
1E
1W
1V
1U
0I
0T
0S
0Q
1K
1Z
b10 %
b10 +
0Y
b10 &
b10 )
b1000001 $
b1000001 (
b1000001 *
b1000001 \
1'
#160
0'
#180
0G
11
1F
05
0H
02
0,
18
16
1/
0=
0>
0E
1S
1R
1I
b1010101 $
b1010101 (
b1010101 *
b1010101 \
b11 &
b11 )
b11 %
b11 +
1Y
1'
#200
0'
#220
0-
1F
10
1H
12
01
1,
08
06
0/
15
17
0C
1E
1X
1J
0W
0V
0U
0I
1T
0S
0R
1Q
1[
0Z
b100 %
b100 +
0Y
b100 &
b100 )
b1101001 $
b1101001 (
b1101001 *
b1101001 \
1'
#240
0'
#260
1G
00
0H
18
1/
0E
1S
1R
1I
b1111101 $
b1111101 (
b1111101 *
b1111101 \
b101 &
b101 )
b101 %
b101 +
1Y
1'
#280
0'
#300
1.
19
0:
1G
1;
0H
01
0<
0@
08
0/
15
17
1=
1>
1?
1B
1E
1W
1V
1U
0I
0T
0S
0R
0Q
0O
0K
1Z
b110 %
b110 +
0Y
b110 &
b110 )
b0 $
b0 (
b0 *
b0 \
1'
#320
0'
#340
1'
#360
0'
#380
1'
#400
0'
#420
1'
#440
0'
#460
1'
#480
0'
#500
1'
#520
0'
#540
1H
0;
07
0.
09
1<
1:
0=
0>
1S
1R
b10100 $
b10100 (
b10100 *
b10100 \
1'
#560
0'
#580
0G
0F
11
1-
05
0H
02
18
16
1/
0E
1T
0S
0R
1Q
1I
b101000 $
b101000 (
b101000 *
b101000 \
b111 &
b111 )
b111 %
b111 +
1Y
1'
#600
0'
#620
0F
10
1H
12
01
1,
08
06
0/
15
17
1C
1E
0X
0J
0W
0V
0U
0I
1S
1R
0[
0Z
b0 %
b0 +
0Y
b0 &
b0 )
b111100 $
b111100 (
b111100 *
b111100 \
1'
#640
0'
#660
1G
00
0H
0<
1@
18
1/
1=
0B
0E
0T
0S
0Q
1K
1I
b1010000 $
b1010000 (
b1010000 *
b1010000 \
b1 &
b1 )
b1 %
b1 +
1Y
1'
#680
0'
#700
1G
1H
01
1<
08
0/
15
07
0=
1>
1E
1W
1V
1U
0I
1T
1S
0R
1Z
b10 %
b10 +
0Y
b10 &
b10 )
b1100100 $
b1100100 (
b1100100 *
b1100100 \
1'
#720
0'
#740
0G
11
1F
05
0H
02
0,
18
16
1/
0>
0E
0S
1R
1Q
1I
b1111000 $
b1111000 (
b1111000 *
b1111000 \
b11 &
b11 )
b11 %
b11 +
1Y
1'
#760
0'
#780
1.
19
0:
0-
1;
1F
10
0H
12
01
0<
0@
1,
08
06
0/
15
17
1=
1>
1B
0C
1E
1X
1J
0W
0V
0U
0I
0T
0R
0Q
0K
1[
0Z
b100 %
b100 +
0Y
b100 &
b100 )
b0 $
b0 (
b0 *
b0 \
1'
